<svg xmlns="http://www.w3.org/2000/svg" width="54.122" height="63.836" viewBox="0 0 54.122 63.836">
  <g id="Group_3863" data-name="Group 3863" transform="translate(-692.414 -628.225)">
    <path id="Path_24817" data-name="Path 24817" d="M727.8,684.655H698.091a2.261,2.261,0,0,1-2.259-2.259V638.109a2.261,2.261,0,0,1,2.259-2.259h1.268a1.709,1.709,0,0,0,0-3.417h-2.591a4.36,4.36,0,0,0-4.354,4.356v46.932a4.36,4.36,0,0,0,4.354,4.355H727.8v3.987l5.806-5.806-5.806-5.806Z" fill="#638d3d"/>
    <path id="Path_24818" data-name="Path 24818" d="M742.182,632.432H710.933v-4.207l-5.806,5.807,5.806,5.8v-3.986h29.926a2.261,2.261,0,0,1,2.259,2.259V682.4a2.261,2.261,0,0,1-2.259,2.259h-1.282a1.709,1.709,0,1,0,0,3.418h2.6a4.36,4.36,0,0,0,4.354-4.355V636.787a4.36,4.36,0,0,0-4.354-4.355" fill="#638d3d"/>
    <path id="Path_24819" data-name="Path 24819" d="M738.241,656.225h-1.928a.771.771,0,0,0-.771.771v.952h-.807V646.839a3.4,3.4,0,0,0-3.4-3.4H707.616a3.4,3.4,0,0,0-3.4,3.4v11.109h-.807V657a.771.771,0,0,0-.771-.771h-1.928a.771.771,0,0,0-.771.771v4.242a.771.771,0,0,0,.771.771h1.928a.771.771,0,0,0,.771-.771v-.951h.807v11.068a3.4,3.4,0,0,0,3.4,3.4h.433v1.411a.68.68,0,0,0,.68.68h3.342a.68.68,0,0,0,.681-.68v-1.411H726.2v1.411a.68.68,0,0,0,.681.68h3.342a.68.68,0,0,0,.68-.68v-1.411h.433a3.4,3.4,0,0,0,3.4-3.4V660.287h.807v.951a.771.771,0,0,0,.771.771h1.928a.771.771,0,0,0,.771-.771V657a.771.771,0,0,0-.771-.771m-34.027,3.466h-.806v-1.148h.806Zm10.657-14.373a.679.679,0,0,1,.68-.68H723.4a.679.679,0,0,1,.68.68v1.141a.68.68,0,0,1-.68.681h-7.846a.68.68,0,0,1-.68-.681Zm-4.893,26.138h-2.012a1.576,1.576,0,0,1,0-3.152h2.012a1.576,1.576,0,0,1,0,3.152m21,0H728.97a1.576,1.576,0,0,1,0-3.152h2.012a1.576,1.576,0,0,1,0,3.152m1.576-8.6a1.021,1.021,0,0,1-1.021,1.021H707.411a1.021,1.021,0,0,1-1.021-1.021V650.111a1.021,1.021,0,0,1,1.021-1.02h24.126a1.021,1.021,0,0,1,1.021,1.02Zm2.984-3.166h-.807v-1.148h.807Z" fill="#638d3d"/>
  </g>
</svg>
